(footprint "PinHeader_1x01_P2.54mm" (version 20211014) (generator pcbnew)
  (layer "F.Cu")
  (tedit 6393B1D6)
  (descr "Through hole straight pin header, 1x01, 2.54mm pitch, single row")
  (tags "Through hole pin header THT 1x01 2.54mm single row")
  (property "Sheetfile" "precharge_evse_interface.kicad_sch")
  (property "Sheetname" "")
  (attr through_hole)
  (fp_text reference "J106" (at 1.27 -7.62) (layer "F.SilkS") hide
    (effects (font (size 1 1) (thickness 0.15)))
    (tstamp 193b1004-e164-4f4c-a9f2-cf14d5a2c43b)
  )
  (fp_text value "Conn_01x01" (at 0 2.33) (layer "F.Fab") hide
    (effects (font (size 1 1) (thickness 0.15)))
    (tstamp cab73b3d-d368-4368-ad80-2c9206996c5b)
  )
  (fp_text user "${REFERENCE}" (at 2.54 0 90) (layer "F.Fab") hide
    (effects (font (size 1 1) (thickness 0.15)))
    (tstamp aa266a6e-155a-4a33-9935-9e87d256f038)
  )
  (pad "1" thru_hole rect (at 0 0) (size 1.7 1.7) (drill 1) (layers *.Cu *.Mask) (tstamp 50f67f6b-bc0e-4a0d-90a7-b76c3ffac683))
  (model "${KICAD6_3DMODEL_DIR}/Connector_PinHeader_2.54mm.3dshapes/PinHeader_1x01_P2.54mm_Vertical.wrl"
    (offset (xyz 0 0 0))
    (scale (xyz 1 1 1))
    (rotate (xyz 0 0 0))
  )
)
