(footprint "SOIC127P600X175-8N" (version 20211014) (generator pcbnew)
  (layer "F.Cu")
  (tedit 63CB2DC3)
  (attr smd)
  (fp_text reference "REF**" (at 1.75586 -5.49662) (layer "F.SilkS")
    (effects (font (size 1.643055 1.643055) (thickness 0.15)))
    (tstamp 9f8fb1a3-0f68-41f9-945e-573ffae96639)
  )
  (fp_text value "SOIC127P600X175-8N" (at 15.32795 4.68495) (layer "F.Fab")
    (effects (font (size 1.643984 1.643984) (thickness 0.15)))
    (tstamp 39dfe24b-4a86-4229-8b5c-2960b9bae886)
  )
  (fp_line (start 1.6764 -2.4892) (end 0.3048 -2.4892) (layer "F.SilkS") (width 0.1524) (tstamp 6d8dce5e-05c4-4cc6-9786-823b81dd08ce))
  (fp_line (start -0.3048 -2.4892) (end -1.6764 -2.4892) (layer "F.SilkS") (width 0.1524) (tstamp 7ba36ccd-f270-4405-b8de-e3b220c47bbf))
  (fp_line (start -1.6764 2.4892) (end 1.6764 2.4892) (layer "F.SilkS") (width 0.1524) (tstamp 941c6c7d-31d7-41fc-bfc8-b58110c7b326))
  (fp_line (start 0.3048 -2.4892) (end -0.3048 -2.4892) (layer "F.SilkS") (width 0.1524) (tstamp f757eeef-e278-4db0-8fcf-7b8002f56e66))
  (fp_arc (start 0.3048 -2.4892) (mid 0 -2.1844) (end -0.3048 -2.4892) (layer "F.SilkS") (width 0.1524) (tstamp 391a360a-883d-49da-a53d-64e337c91a0b))
  (fp_line (start -2.0066 -2.159) (end -3.0988 -2.159) (layer "F.Fab") (width 0.1) (tstamp 05e994e1-0d2b-4cbb-b2a4-2d47cd16b86d))
  (fp_line (start 2.0066 0.381) (end 2.0066 0.889) (layer "F.Fab") (width 0.1) (tstamp 07f7606f-7653-4f6a-a0ed-397d1a573d36))
  (fp_line (start -0.3048 -2.4892) (end -2.0066 -2.4892) (layer "F.Fab") (width 0.1) (tstamp 098712b4-ea86-47b4-91d6-920b639aaeee))
  (fp_line (start -3.0988 1.651) (end -3.0988 2.159) (layer "F.Fab") (width 0.1) (tstamp 140efb55-9a79-494c-ae17-186dd1ba2ff5))
  (fp_line (start -2.0066 2.4892) (end 2.0066 2.4892) (layer "F.Fab") (width 0.1) (tstamp 1adc93d1-98ae-43e4-a952-8f6bb8bcbe98))
  (fp_line (start 0.3048 -2.4892) (end -0.3048 -2.4892) (layer "F.Fab") (width 0.1) (tstamp 1c0b9ba6-ba25-4ce0-8e89-22def3eeabcd))
  (fp_line (start 2.0066 -0.381) (end 3.0988 -0.381) (layer "F.Fab") (width 0.1) (tstamp 1c6c0179-2f53-4366-9e1d-50fe662a9a7f))
  (fp_line (start 3.0988 1.651) (end 2.0066 1.651) (layer "F.Fab") (width 0.1) (tstamp 20caa158-5793-4e06-a062-287edff7c5b8))
  (fp_line (start 2.0066 -1.651) (end 3.0988 -1.651) (layer "F.Fab") (width 0.1) (tstamp 2df658bb-2d7c-4eab-84e3-5b6117f497e0))
  (fp_line (start -2.0066 0.381) (end -3.0988 0.381) (layer "F.Fab") (width 0.1) (tstamp 3305708e-c53e-49d1-b266-8af63235ee77))
  (fp_line (start -2.0066 -2.4892) (end -2.0066 2.4892) (layer "F.Fab") (width 0.1) (tstamp 33987600-d664-487a-bf51-a33c9eb52027))
  (fp_line (start 2.0066 -2.4892) (end 0.3048 -2.4892) (layer "F.Fab") (width 0.1) (tstamp 39d891a0-beef-47bd-807e-531f68523ac9))
  (fp_line (start 3.0988 -0.381) (end 3.0988 -0.889) (layer "F.Fab") (width 0.1) (tstamp 49e20a68-b961-4f05-9966-a78a02545c8e))
  (fp_line (start 3.0988 0.381) (end 2.0066 0.381) (layer "F.Fab") (width 0.1) (tstamp 4a9d2203-9f64-4e8e-ac42-8891969197b1))
  (fp_line (start -2.0066 0.889) (end -2.0066 0.381) (layer "F.Fab") (width 0.1) (tstamp 4caf4c35-ba39-41a5-9cc6-7ea2de7525c3))
  (fp_line (start 2.0066 0.889) (end 3.0988 0.889) (layer "F.Fab") (width 0.1) (tstamp 55d547af-b2b0-4a4b-b550-47da639882a6))
  (fp_line (start -2.0066 -0.381) (end -2.0066 -0.889) (layer "F.Fab") (width 0.1) (tstamp 5e8d48cb-7ace-4432-87c8-faa9d821d187))
  (fp_line (start 2.0066 1.651) (end 2.0066 2.159) (layer "F.Fab") (width 0.1) (tstamp 693b39fb-c8b3-4bc2-942d-05fbe05a0f17))
  (fp_line (start -3.0988 0.889) (end -2.0066 0.889) (layer "F.Fab") (width 0.1) (tstamp 693fd986-36e0-4ab5-8fb0-24d4a039414a))
  (fp_line (start 2.0066 2.159) (end 3.0988 2.159) (layer "F.Fab") (width 0.1) (tstamp 752486d7-68a5-450a-8dde-74dbb6ac756d))
  (fp_line (start 3.0988 -0.889) (end 2.0066 -0.889) (layer "F.Fab") (width 0.1) (tstamp 78c7edc5-f8f3-4900-937c-2596fecbdd85))
  (fp_line (start 2.0066 -0.889) (end 2.0066 -0.381) (layer "F.Fab") (width 0.1) (tstamp 7f9a58ac-1b78-488f-af4e-d34c6615ba2d))
  (fp_line (start 3.0988 0.889) (end 3.0988 0.381) (layer "F.Fab") (width 0.1) (tstamp 85395447-aabc-40e3-b9a8-275070c8f878))
  (fp_line (start -3.0988 0.381) (end -3.0988 0.889) (layer "F.Fab") (width 0.1) (tstamp 8aa963c7-1b3f-4a85-afbd-f1543ccd3617))
  (fp_line (start -3.0988 -1.651) (end -2.0066 -1.651) (layer "F.Fab") (width 0.1) (tstamp 929d24e8-8fe4-429e-bba3-cdfa11602801))
  (fp_line (start -2.0066 1.651) (end -3.0988 1.651) (layer "F.Fab") (width 0.1) (tstamp 9b96f494-a578-40f7-9896-44267321de41))
  (fp_line (start -3.0988 -0.381) (end -2.0066 -0.381) (layer "F.Fab") (width 0.1) (tstamp 9e9aaa5c-c2c7-4502-8156-de8959caa535))
  (fp_line (start -2.0066 -0.889) (end -3.0988 -0.889) (layer "F.Fab") (width 0.1) (tstamp 9f5d479d-4bbc-4b00-a8c8-c5e48ce14cd4))
  (fp_line (start -3.0988 -2.159) (end -3.0988 -1.651) (layer "F.Fab") (width 0.1) (tstamp abe1a5c5-be1f-4ffb-aa79-9cbbc3178fde))
  (fp_line (start 2.0066 2.4892) (end 2.0066 -2.4892) (layer "F.Fab") (width 0.1) (tstamp b0cbdae0-2827-4c0c-9dd3-267a81dce2da))
  (fp_line (start 3.0988 2.159) (end 3.0988 1.651) (layer "F.Fab") (width 0.1) (tstamp b71ee34c-a2a8-41ba-b093-282cd1b4450a))
  (fp_line (start 3.0988 -2.159) (end 2.0066 -2.159) (layer "F.Fab") (width 0.1) (tstamp c24df56f-fc0f-4d02-80fa-978bbc15f08f))
  (fp_line (start 3.0988 -1.651) (end 3.0988 -2.159) (layer "F.Fab") (width 0.1) (tstamp c6e4e8c0-445d-4014-9e8c-0bc1c2e174f2))
  (fp_line (start -2.0066 -1.651) (end -2.0066 -2.159) (layer "F.Fab") (width 0.1) (tstamp cbd78e49-f1f8-4d84-a58c-e5d55a1b6a37))
  (fp_line (start -3.0988 2.159) (end -2.0066 2.159) (layer "F.Fab") (width 0.1) (tstamp d07315fb-d983-4ad9-921a-aa8eddebef35))
  (fp_line (start -3.0988 -0.889) (end -3.0988 -0.381) (layer "F.Fab") (width 0.1) (tstamp d64eb0f9-9953-4bde-8f1f-742c06689809))
  (fp_line (start -2.0066 2.159) (end -2.0066 1.651) (layer "F.Fab") (width 0.1) (tstamp f417e8f6-41b9-4a11-9fca-b4cbaed11ba2))
  (fp_line (start 2.0066 -2.159) (end 2.0066 -1.651) (layer "F.Fab") (width 0.1) (tstamp fe231d11-47dd-4e3c-84fd-c7b5b216d5e1))
  (fp_arc (start 0.3048 -2.4892) (mid 0 -2.1844) (end -0.3048 -2.4892) (layer "F.Fab") (width 0.1) (tstamp 5fbd5b85-3e74-45f6-9f72-8dc52cd22302))
  (pad "1" smd rect (at -2.5908 -1.905) (size 1.7018 0.5334) (layers "F.Cu" "F.Paste" "F.Mask") (tstamp a514dd3a-0033-4ce3-8600-118572d37502))
  (pad "2" smd rect (at -2.5908 -0.635) (size 1.7018 0.5334) (layers "F.Cu" "F.Paste" "F.Mask") (tstamp df336659-b2ec-4c6a-9da7-afa0037718c7))
  (pad "3" smd rect (at -2.5908 0.635) (size 1.7018 0.5334) (layers "F.Cu" "F.Paste" "F.Mask") (tstamp d2954dd0-065a-42f1-b8b8-a95e1fc2613c))
  (pad "4" smd rect (at -2.5908 1.905) (size 1.7018 0.5334) (layers "F.Cu" "F.Paste" "F.Mask") (tstamp 7337bbdc-f51e-4d4a-aa18-237b20ed0bd5))
  (pad "5" smd rect (at 2.5908 1.905) (size 1.7018 0.5334) (layers "F.Cu" "F.Paste" "F.Mask") (tstamp e8dee418-73fb-4299-a24a-c99fc506ec13))
  (pad "6" smd rect (at 2.5908 0.635) (size 1.7018 0.5334) (layers "F.Cu" "F.Paste" "F.Mask") (tstamp 48d1f8a7-bc8d-42c0-99ef-de81f70d61e6))
  (pad "7" smd rect (at 2.5908 -0.635) (size 1.7018 0.5334) (layers "F.Cu" "F.Paste" "F.Mask") (tstamp 2fbffbc5-b964-446b-82e9-1debb68a9f51))
  (pad "8" smd rect (at 2.5908 -1.905) (size 1.7018 0.5334) (layers "F.Cu" "F.Paste" "F.Mask") (tstamp 46435435-96bd-4bac-b595-8bd402ee619c))
  (model "${KIPRJMOD}/3d_models/SOIC-8_3.9x4.9mm_P1.27mm.wrl"
    (offset (xyz 0 0 0))
    (scale (xyz 1 1 1))
    (rotate (xyz 0 0 0))
  )
)
